Copyright 1986-2015 Xilinx, Inc. All Rights Reserved.
------------------------------------------------------------------------------------
| Tool Version : Vivado v.2015.2 (win64) Build 1266856 Fri Jun 26 16:35:25 MDT 2015
| Date         : Sun Sep 20 22:12:26 2015
| Host         : wb running 64-bit Service Pack 1  (build 7601)
| Command      : report_drc
------------------------------------------------------------------------------------

Report DRC

Table of Contents
-----------------
1. REPORT SUMMARY
2. REPORT DETAILS

1. REPORT SUMMARY
-----------------
            Netlist: netlist
          Floorplan: design_1
      Design limits: <entire design considered>
           Ruledeck: default
             Max violations: <unlimited>
             Violations found: 15

2. REPORT DETAILS
-----------------
BUFC-1#1 Warning
Input Buffer Connections  
Input buffer portc[1]_IBUF_inst has no loads. An input buffer must drive an internal load.
Related violations: <none>

BUFC-1#2 Warning
Input Buffer Connections  
Input buffer portc[2]_IBUF_inst has no loads. An input buffer must drive an internal load.
Related violations: <none>

BUFC-1#3 Warning
Input Buffer Connections  
Input buffer portc[3]_IBUF_inst has no loads. An input buffer must drive an internal load.
Related violations: <none>

BUFC-1#4 Warning
Input Buffer Connections  
Input buffer portc[4]_IBUF_inst has no loads. An input buffer must drive an internal load.
Related violations: <none>

BUFC-1#5 Warning
Input Buffer Connections  
Input buffer portc[5]_IBUF_inst has no loads. An input buffer must drive an internal load.
Related violations: <none>

CFGBVS-1#1 Warning
Missing CFGBVS and CONFIG_VOLTAGE Design Properties  
Neither the CFGBVS nor CONFIG_VOLTAGE voltage property is set in the current_design.  Configuration bank voltage select (CFGBVS) must be set to VCCO or GND, and CONFIG_VOLTAGE must be set to the correct configuration voltage, in order to determine the I/O voltage support for the pins in bank 0.  It is suggested to specify these either using the 'Edit Device Properties' function in the GUI or directly in the XDC file using the following syntax:

 set_property CFGBVS value1 [current_design]
 #where value1 is either VCCO or GND

 set_property CONFIG_VOLTAGE value2 [current_design]
 #where value2 is the voltage provided to configuration bank 0

Refer to the device configuration user guide for more information.
Related violations: <none>

PDRC-153#1 Warning
Gated clock check  
Net nolabel_line42/buffer_reg[10]_LDC_i_1_n_0 is a gated clock net sourced by a combinational pin nolabel_line42/buffer_reg[10]_LDC_i_1/O, cell nolabel_line42/buffer_reg[10]_LDC_i_1. This is not good design practice and will likely impact performance. For SLICE registers, for example, use the CE pin to control the loading of data.
Related violations: <none>

PDRC-153#2 Warning
Gated clock check  
Net nolabel_line42/buffer_reg[11]_LDC_i_1_n_0 is a gated clock net sourced by a combinational pin nolabel_line42/buffer_reg[11]_LDC_i_1/O, cell nolabel_line42/buffer_reg[11]_LDC_i_1. This is not good design practice and will likely impact performance. For SLICE registers, for example, use the CE pin to control the loading of data.
Related violations: <none>

PDRC-153#3 Warning
Gated clock check  
Net nolabel_line42/buffer_reg[12]_LDC_i_1_n_0 is a gated clock net sourced by a combinational pin nolabel_line42/buffer_reg[12]_LDC_i_1/O, cell nolabel_line42/buffer_reg[12]_LDC_i_1. This is not good design practice and will likely impact performance. For SLICE registers, for example, use the CE pin to control the loading of data.
Related violations: <none>

PDRC-153#4 Warning
Gated clock check  
Net nolabel_line42/buffer_reg[13]_LDC_i_1_n_0 is a gated clock net sourced by a combinational pin nolabel_line42/buffer_reg[13]_LDC_i_1/O, cell nolabel_line42/buffer_reg[13]_LDC_i_1. This is not good design practice and will likely impact performance. For SLICE registers, for example, use the CE pin to control the loading of data.
Related violations: <none>

PDRC-153#5 Warning
Gated clock check  
Net nolabel_line42/buffer_reg[14]_LDC_i_1_n_0 is a gated clock net sourced by a combinational pin nolabel_line42/buffer_reg[14]_LDC_i_1/O, cell nolabel_line42/buffer_reg[14]_LDC_i_1. This is not good design practice and will likely impact performance. For SLICE registers, for example, use the CE pin to control the loading of data.
Related violations: <none>

PDRC-153#6 Warning
Gated clock check  
Net nolabel_line42/buffer_reg[15]_LDC_i_1_n_0 is a gated clock net sourced by a combinational pin nolabel_line42/buffer_reg[15]_LDC_i_1/O, cell nolabel_line42/buffer_reg[15]_LDC_i_1. This is not good design practice and will likely impact performance. For SLICE registers, for example, use the CE pin to control the loading of data.
Related violations: <none>

PDRC-153#7 Warning
Gated clock check  
Net nolabel_line42/buffer_reg[16]_LDC_i_1_n_0 is a gated clock net sourced by a combinational pin nolabel_line42/buffer_reg[16]_LDC_i_1/O, cell nolabel_line42/buffer_reg[16]_LDC_i_1. This is not good design practice and will likely impact performance. For SLICE registers, for example, use the CE pin to control the loading of data.
Related violations: <none>

PDRC-153#8 Warning
Gated clock check  
Net nolabel_line42/buffer_reg[17]_LDC_i_1_n_0 is a gated clock net sourced by a combinational pin nolabel_line42/buffer_reg[17]_LDC_i_1/O, cell nolabel_line42/buffer_reg[17]_LDC_i_1. This is not good design practice and will likely impact performance. For SLICE registers, for example, use the CE pin to control the loading of data.
Related violations: <none>

RTSTAT-10#1 Warning
No routable loads  
5 net(s) have no routable loads. The problem bus(es) and/or net(s) are portc[1]_IBUF, portc[2]_IBUF, portc[3]_IBUF, portc[4]_IBUF, portc[5]_IBUF.
Related violations: <none>


